module unixmenu

go 1.22.0

require (
	github.com/gobuffalo/buffalo v1.1.0
	github.com/gobuffalo/buffalo-pop/v3 v3.0.7
	github.com/gobuffalo/envy v1.10.2
	github.com/gobuffalo/grift v1.5.2
	github.com/gobuffalo/middleware v1.0.0
	github.com/gobuffalo/pop/v6 v6.1.1
	github.com/gobuffalo/suite/v4 v4.0.4
	github.com/gobuffalo/validate/v3 v3.3.3
	github.com/gobuffalo/x v0.1.0
	github.com/unrolled/secure v1.14.0
)

require (
	github.com/BurntSushi/toml v1.2.1 // indirect
	github.com/Masterminds/semver/v3 v3.1.1 // indirect
	github.com/aymerick/douceur v0.2.0 // indirect
	github.com/davecgh/go-spew v1.1.1 // indirect
	github.com/dustin/go-humanize v1.0.1 // indirect
	github.com/fatih/color v1.13.0 // indirect
	github.com/fatih/structs v1.1.0 // indirect
	github.com/felixge/httpsnoop v1.0.1 // indirect
	github.com/fsnotify/fsnotify v1.6.0 // indirect
	github.com/go-sql-driver/mysql v1.7.0 // indirect
	github.com/gobuffalo/events v1.4.3 // indirect
	github.com/gobuffalo/fizz v1.14.4 // indirect
	github.com/gobuffalo/flect v1.0.0 // indirect
	github.com/gobuffalo/github_flavored_markdown v1.1.3 // indirect
	github.com/gobuffalo/helpers v0.6.7 // indirect
	github.com/gobuffalo/httptest v1.5.2 // indirect
	github.com/gobuffalo/logger v1.0.7 // indirect
	github.com/gobuffalo/meta v0.3.3 // indirect
	github.com/gobuffalo/nulls v0.4.2 // indirect
	github.com/gobuffalo/plush/v4 v4.1.18 // indirect
	github.com/gobuffalo/refresh v1.13.3 // indirect
	github.com/gobuffalo/tags/v3 v3.1.4 // indirect
	github.com/gofrs/uuid v4.3.1+incompatible // indirect
	github.com/gorilla/css v1.0.0 // indirect
	github.com/gorilla/handlers v1.5.1 // indirect
	github.com/gorilla/mux v1.8.0 // indirect
	github.com/gorilla/securecookie v1.1.1 // indirect
	github.com/gorilla/sessions v1.2.1 // indirect
	github.com/inconshreveable/mousetrap v1.0.1 // indirect
	github.com/jackc/chunkreader/v2 v2.0.1 // indirect
	github.com/jackc/pgconn v1.13.0 // indirect
	github.com/jackc/pgio v1.0.0 // indirect
	github.com/jackc/pgpassfile v1.0.0 // indirect
	github.com/jackc/pgproto3/v2 v2.3.1 // indirect
	github.com/jackc/pgservicefile v0.0.0-20200714003250-2b9c44734f2b // indirect
	github.com/jackc/pgtype v1.12.0 // indirect
	github.com/jackc/pgx/v4 v4.17.2 // indirect
	github.com/jmoiron/sqlx v1.3.5 // indirect
	github.com/joho/godotenv v1.4.0 // indirect
	github.com/kballard/go-shellquote v0.0.0-20180428030007-95032a82bc51 // indirect
	github.com/luna-duclos/instrumentedsql v1.1.3 // indirect
	github.com/mattn/go-colorable v0.1.9 // indirect
	github.com/mattn/go-isatty v0.0.14 // indirect
	github.com/mattn/go-sqlite3 v1.14.16 // indirect
	github.com/microcosm-cc/bluemonday v1.0.20 // indirect
	github.com/mitchellh/go-homedir v1.1.0 // indirect
	github.com/monoculum/formam v3.5.5+incompatible // indirect
	github.com/nicksnyder/go-i18n v1.10.1 // indirect
	github.com/pelletier/go-toml v1.2.0 // indirect
	github.com/pmezard/go-difflib v1.0.0 // indirect
	github.com/rogpeppe/go-internal v1.9.0 // indirect
	github.com/sergi/go-diff v1.2.0 // indirect
	github.com/sirupsen/logrus v1.9.0 // indirect
	github.com/sourcegraph/annotate v0.0.0-20160123013949-f4cad6c6324d // indirect
	github.com/sourcegraph/syntaxhighlight v0.0.0-20170531221838-bd320f5d308e // indirect
	github.com/spf13/cobra v1.6.1 // indirect
	github.com/spf13/pflag v1.0.5 // indirect
	github.com/stretchr/testify v1.8.1 // indirect
	golang.org/x/crypto v0.0.0-20220722155217-630584e8d5aa // indirect
	golang.org/x/net v0.0.0-20221002022538-bcab6841153b // indirect
	golang.org/x/sync v0.1.0 // indirect
	golang.org/x/sys v0.0.0-20220908164124-27713097b956 // indirect
	golang.org/x/term v0.0.0-20220722155259-a9ba230a4035 // indirect
	golang.org/x/text v0.6.0 // indirect
	gopkg.in/yaml.v2 v2.4.0 // indirect
	gopkg.in/yaml.v3 v3.0.1 // indirect
)
